<svg xmlns="http://www.w3.org/2000/svg" width="107" height="107" viewBox="0 0 107 107">
  <path fill="#217ad3" d="M762.336,859c29.522,0,53.456,23.729,53.456,53s-23.934,53-53.456,53S708.88,941.27,708.88,912,732.813,859,762.336,859Z" transform="translate(-708.828 -858.5)"/>
  <path fill="#ffffff" d="M798.4,907.832l-4.993-7.068c-1.035-1.461-3.9-3.222-5.8-3.222h-0.039l-8.563.12v-7.751A3.884,3.884,0,0,0,775.168,886H740.373a3.883,3.883,0,0,0-3.84,3.916v18.164c0,0.07.016,0.134,0.02,0.2,0,0.035-.02.066-0.02,0.1v15.6a3.883,3.883,0,0,0,3.84,3.916H741.9a1.164,1.164,0,0,0,1.119-.863,9.444,9.444,0,0,1,18.259,0,1.164,1.164,0,0,0,1.119.863H775.13a1.165,1.165,0,0,0,1.119-.861,9.444,9.444,0,0,1,18.26,0,1.166,1.166,0,0,0,1.12.861h1.521a3.883,3.883,0,0,0,3.839-3.916v-7.969A14.488,14.488,0,0,0,798.4,907.832Zm-59.543-17.921a1.53,1.53,0,0,1,1.512-1.545h34.795a1.531,1.531,0,0,1,1.514,1.545v18.164a1.549,1.549,0,0,1-1.514,1.543H740.373a1.53,1.53,0,0,1-1.512-1.543V889.911Zm59.8,34.069a1.551,1.551,0,0,1-1.513,1.545h-0.677a11.745,11.745,0,0,0-22.188,0H763.238a11.744,11.744,0,0,0-22.187,0h-0.678a1.53,1.53,0,0,1-1.512-1.545v-12a3.729,3.729,0,0,0,1.512.317h34.795a3.884,3.884,0,0,0,3.842-3.916v-8.345l8.593-.122a6.763,6.763,0,0,1,3.917,2.238l5,7.067a12.036,12.036,0,0,1,2.148,6.793v7.969Zm-72.639-3H731a1.186,1.186,0,0,0,0-2.372h-4.979A1.186,1.186,0,0,0,726.024,920.976Zm5.948,5.043h-10.8a1.186,1.186,0,0,0,0,2.371h10.8A1.186,1.186,0,0,0,731.972,926.019Zm53.407-2.57a6.791,6.791,0,1,0,6.662,6.789A6.734,6.734,0,0,0,785.379,923.449Zm0,11.209a4.42,4.42,0,1,1,4.336-4.42A4.383,4.383,0,0,1,785.379,934.658Zm-33.234-11.209a6.791,6.791,0,1,0,6.661,6.789A6.734,6.734,0,0,0,752.145,923.449Zm0,11.209a4.42,4.42,0,1,1,4.333-4.42A4.383,4.383,0,0,1,752.145,934.658Z" transform="translate(-708.828 -858.5)"/>
</svg>
