<svg id="card_features_1" xmlns="http://www.w3.org/2000/svg" width="48" height="48" viewBox="0 0 48 48">
  <metadata><?xpacket begin="﻿" id="W5M0MpCehiHzreSzNTczkc9d"?>
<x:xmpmeta xmlns:x="adobe:ns:meta/" x:xmptk="Adobe XMP Core 5.6-c142 79.160924, 2017/07/13-01:06:39        ">
   <rdf:RDF xmlns:rdf="http://www.w3.org/1999/02/22-rdf-syntax-ns#">
      <rdf:Description rdf:about=""/>
   </rdf:RDF>
</x:xmpmeta>
                                                                                                    
                                                                                                    
                                                                                                    
                                                                                                    
                                                                                                    
                                                                                                    
                                                                                                    
                                                                                                    
                                                                                                    
                                                                                                    
                                                                                                    
                                                                                                    
                                                                                                    
                                                                                                    
                                                                                                    
                                                                                                    
                                                                                                    
                                                                                                    
                                                                                                    
                                                                                                    
                           
<?xpacket end="w"?></metadata>
<defs>
    <style>
      .cls-1 {
        fill: #fff;
      }

      .cls-2 {
        fill: #278ef6;
        fill-rule: evenodd;
      }
    </style>
  </defs>
  <ellipse class="cls-1" cx="24" cy="24" rx="24" ry="23.906"/>
  <path id="Фигура_5" data-name="Фигура 5" class="cls-2" d="M997.939,682.1l-7.066,6.855a2.571,2.571,0,0,0-3.233.368l-5.138-2.878a0.77,0.77,0,0,0-1.036.27,0.723,0.723,0,0,0,.277,1l5.238,2.935a2.372,2.372,0,0,0-.036.35,2.535,2.535,0,0,0,5.067,0,2.359,2.359,0,0,0-.181-0.9l7.18-6.966a0.721,0.721,0,0,0,0-1.042A0.773,0.773,0,0,0,997.939,682.1Zm-8.46,9.891a1,1,0,0,1-1.017-.986,0.94,0.94,0,0,1,.029-0.14,0.518,0.518,0,0,0,.231-0.5,1.017,1.017,0,0,1,.757-0.344A0.986,0.986,0,1,1,989.479,691.987Zm0.758-11.5v-1.073a0.759,0.759,0,0,0-1.517,0v1.073A0.759,0.759,0,0,0,990.237,680.485Zm-12.7,9.78a0.737,0.737,0,1,0,0,1.473h1.105a0.737,0.737,0,1,0,0-1.473h-1.105Zm31.035-3.946a0.764,0.764,0,0,0-1.01.348l-1.65,3.369A16.492,16.492,0,0,0,973,691a16.084,16.084,0,0,0,12.308,15.475,0.8,0.8,0,0,0,.192.024,0.754,0.754,0,0,0,.733-0.551,0.734,0.734,0,0,0-.542-0.9A14.6,14.6,0,0,1,974.515,691a14.978,14.978,0,0,1,29.865-1.119l-2.14-2.632a0.779,0.779,0,0,0-1.07-.121,0.721,0.721,0,0,0-.12,1.035l3.9,4.786a0.753,0.753,0,0,0,.59.28c0.03,0,.06,0,0.09,0a0.757,0.757,0,0,0,.6-0.415l2.7-5.51A0.725,0.725,0,0,0,1008.57,686.319Zm-15.09,11.9h2.331v8.777h1.461V696.971H993.48v1.245Zm10.21,5.537a4.557,4.557,0,0,1-1.75.394,1.776,1.776,0,0,1-1.12-.315,1.107,1.107,0,0,1-.4-0.934v-1.867h-1.112v1.934a1.9,1.9,0,0,0,.625,1.553,2.712,2.712,0,0,0,1.777.518,4.784,4.784,0,0,0,1.98-.45v2.407h1.11v-5.962h-1.11v2.722Z" transform="translate(-966 -667.907)"/>
</svg>
