<svg xmlns="http://www.w3.org/2000/svg" width="80" height="60" viewBox="0 0 80 60">
  <path fill="#ffffff" d="M485.529,745.283a10.01,10.01,0,0,1-2.864-2.041,9.25,9.25,0,0,1-1.952-3.013,9.831,9.831,0,0,1,1.952-10.43,9.146,9.146,0,0,1,2.895-2.041,8.737,8.737,0,0,1,3.613-.745,9.194,9.194,0,0,1,3.677.745,8.98,8.98,0,0,1,2.96,2.041,9.854,9.854,0,0,1,1.952,10.43,9.022,9.022,0,0,1-4.912,5.021,9.177,9.177,0,0,1-3.677.745A9.286,9.286,0,0,1,485.529,745.283Zm-3.254,25.46-2.278-2.4,40.151-41.138,2.148,2.073Zm2.408-29.607a7.072,7.072,0,0,0,1.985,1.49,5.664,5.664,0,0,0,5.01,0,6.432,6.432,0,0,0,1.952-1.522,7.647,7.647,0,0,0,1.3-2.138,6.556,6.556,0,0,0,.487-2.494,6.978,6.978,0,0,0-.487-2.592,7.554,7.554,0,0,0-1.3-2.17,5.687,5.687,0,0,0-1.952-1.458,6.316,6.316,0,0,0-5.01,0,5.672,5.672,0,0,0-1.953,1.458,7.485,7.485,0,0,0-1.3,2.17,6.959,6.959,0,0,0-.489,2.592,6.539,6.539,0,0,0,.489,2.494A8.534,8.534,0,0,0,484.683,741.136Zm25.443,29.154a9.454,9.454,0,0,1-2.928-2.074,9.831,9.831,0,0,1,0-13.475,9.025,9.025,0,0,1,6.572-2.786,9.029,9.029,0,0,1,6.573,2.786,9.826,9.826,0,0,1,0,13.475A9.019,9.019,0,0,1,513.77,771,9.315,9.315,0,0,1,510.126,770.29Zm-0.846-4.147a7.109,7.109,0,0,0,1.985,1.491,5.285,5.285,0,0,0,2.441.582,5.428,5.428,0,0,0,2.5-.582,6.873,6.873,0,0,0,1.985-1.523,7.15,7.15,0,0,0,1.334-2.17,6.8,6.8,0,0,0,.488-2.527,6.973,6.973,0,0,0-.488-2.591,6.762,6.762,0,0,0-1.334-2.138,6.212,6.212,0,0,0-1.985-1.425,5.99,5.99,0,0,0-2.5-.519,5.809,5.809,0,0,0-4.458,1.944,7.017,7.017,0,0,0-1.3,7.256A7.566,7.566,0,0,0,509.28,766.143Z" transform="translate(-461 -720)"/>
</svg>
