<svg xmlns="http://www.w3.org/2000/svg" width="80" height="60" viewBox="0 0 80 60">
  <path fill="#ffffff" d="M483.311,746.106h-1.626a1.105,1.105,0,1,1,0-2.21h1.626A1.105,1.105,0,1,1,483.311,746.106Zm44.556-6.657-3.975,8.265a1.118,1.118,0,0,1-.883.623,1.076,1.076,0,0,1-.126.007,1.123,1.123,0,0,1-.875-0.419l-5.736-7.18a1.1,1.1,0,0,1,.183-1.552,1.122,1.122,0,0,1,1.567.181l3.155,3.949a21.992,21.992,0,1,0-27.5,22.753,1.1,1.1,0,0,1-.28,2.173,1.144,1.144,0,0,1-.283-0.036,24.025,24.025,0,1,1,30.305-24.66l2.43-5.054a1.12,1.12,0,0,1,1.488-.522A1.1,1.1,0,0,1,527.867,739.449Zm-29.729-10.222v-1.61a1.116,1.116,0,0,1,2.231,0v1.61A1.116,1.116,0,0,1,498.138,729.227Zm-10.264,10.847a1.1,1.1,0,0,1-.407-1.509,1.123,1.123,0,0,1,1.525-.4l7.557,4.317a3.725,3.725,0,0,1,4.755-.551L511.7,731.643a1.123,1.123,0,0,1,1.577,0,1.1,1.1,0,0,1,0,1.563l-10.56,10.449a3.636,3.636,0,0,1,.265,1.346,3.727,3.727,0,0,1-7.453,0,3.5,3.5,0,0,1,.054-0.525Zm11.379,6.406a1.479,1.479,0,1,0-1.113-2.441,1.07,1.07,0,0,1-.133.549,1.042,1.042,0,0,1-.206.2,1.348,1.348,0,0,0-.043.21A1.488,1.488,0,0,0,499.253,746.48Zm11.463,22.509h-2.149V755.824h-3.429v-1.868h5.578v15.033Zm4.631-6.142a1.691,1.691,0,0,0,.589,1.4,2.567,2.567,0,0,0,1.645.472,6.562,6.562,0,0,0,2.576-.591v-4.083h1.636v8.943h-1.636v-3.61a6.944,6.944,0,0,1-2.916.674,3.939,3.939,0,0,1-2.61-.776,2.878,2.878,0,0,1-.921-2.33v-2.9h1.637v2.8Z" transform="translate(-461 -720)"/>
</svg>
