<svg id="deliver_4" xmlns="http://www.w3.org/2000/svg" width="106.91" height="106" viewBox="0 0 106.91 106">
  <metadata><?xpacket begin="﻿" id="W5M0MpCehiHzreSzNTczkc9d"?>
<x:xmpmeta xmlns:x="adobe:ns:meta/" x:xmptk="Adobe XMP Core 5.6-c142 79.160924, 2017/07/13-01:06:39        ">
   <rdf:RDF xmlns:rdf="http://www.w3.org/1999/02/22-rdf-syntax-ns#">
      <rdf:Description rdf:about=""/>
   </rdf:RDF>
</x:xmpmeta>
                                                                                                    
                                                                                                    
                                                                                                    
                                                                                                    
                                                                                                    
                                                                                                    
                                                                                                    
                                                                                                    
                                                                                                    
                                                                                                    
                                                                                                    
                                                                                                    
                                                                                                    
                                                                                                    
                                                                                                    
                                                                                                    
                                                                                                    
                                                                                                    
                                                                                                    
                                                                                                    
                           
<?xpacket end="w"?></metadata>
<defs>
    <style>
      .cls-1 {
        fill: #f1f7f9;
      }

      .cls-1, .cls-2 {
        fill-rule: evenodd;
      }

      .cls-2 {
        fill: #278ef6;
      }
    </style>
  </defs>
  <path id="Ellipse_5_copy_5" data-name="Ellipse 5 copy 5" class="cls-1" d="M1238.54,2785c29.53,0,53.46,23.73,53.46,53s-23.93,53-53.46,53-53.45-23.73-53.45-53S1209.02,2785,1238.54,2785Z" transform="translate(-1185.09 -2785)"/>
  <path id="Фигура_6" data-name="Фигура 6" class="cls-2" d="M1248.11,2835.4a2.375,2.375,0,1,0-2.41-2.38A2.4,2.4,0,0,0,1248.11,2835.4Zm-13.16,0a2.375,2.375,0,1,0-2.42-2.38A2.407,2.407,0,0,0,1234.95,2835.4Zm14.98,8.12a1.168,1.168,0,0,0-.82-1.45,1.189,1.189,0,0,0-1.48.81c-0.62,2.15-3.19,3.71-6.12,3.71s-5.51-1.56-6.13-3.71a1.183,1.183,0,0,0-1.47-.81,1.166,1.166,0,0,0-.83,1.45c0.92,3.19,4.38,5.42,8.43,5.42S1249.02,2846.71,1249.93,2843.52Zm20.09-7.92a9.908,9.908,0,0,0-8.66-9.97,19.8,19.8,0,0,0-18.67-15.65h-2.31a19.805,19.805,0,0,0-18.68,15.64,10.074,10.074,0,0,0,.22,19.99h0.09a1.231,1.231,0,0,0,.77-0.28,1.177,1.177,0,0,0,.98-1.14v-15.5c0-.22.03-0.44,0.04-0.65a20.189,20.189,0,0,0,11.63-8.39,20.3,20.3,0,0,0,13.44,5.01,20.508,20.508,0,0,0,8.99-2.11,14.8,14.8,0,0,1,1.44,6.14v15.5a18.024,18.024,0,0,1-5.08,11.83,15.618,15.618,0,0,1-7.93,3.66,4.89,4.89,0,1,0,.13,2.36,17.837,17.837,0,0,0,9.49-4.36,20.487,20.487,0,0,0,5.71-12.14A9.924,9.924,0,0,0,1270.02,2835.6Zm-28.51,28.05a2.575,2.575,0,1,1,2.62-2.57A2.6,2.6,0,0,1,1241.51,2863.65Zm-26.13-28.05a7.562,7.562,0,0,1,6.02-7.53c-0.01.2-.03,0.41-0.03,0.62v14.44A7.562,7.562,0,0,1,1215.38,2835.6Zm33.49-13.29a17.854,17.854,0,0,1-12.84-5.36,1.209,1.209,0,0,0-1.02-.35,1.192,1.192,0,0,0-.89.61,17.788,17.788,0,0,1-9.94,8.26,17.53,17.53,0,0,1,4.66-8.13,17.265,17.265,0,0,1,11.54-5h2.31a17.222,17.222,0,0,1,11.53,5,17.655,17.655,0,0,1,2.51,3.14A18.062,18.062,0,0,1,1248.87,2822.31Zm12.83,20.81v-14.43c0-.2-0.03-0.41-0.04-0.61A7.727,7.727,0,0,1,1261.7,2843.12Z" transform="translate(-1185.09 -2785)"/>
</svg>
