<svg xmlns="http://www.w3.org/2000/svg" width="70" height="85" viewBox="0 0 70 85">
  <path d="M872.6,1029.97c-0.343.05-8.462,1.17-14.283,6.79a24.117,24.117,0,0,0-5.53,8.49V1025.1a6.064,6.064,0,0,0,.718-0.22,5.964,5.964,0,0,0,.727.09c4.5,0,9.261-5.5,11.245-13.28h0c2.163-8.51.068-16.074-4.768-17.22a6.538,6.538,0,0,0-5.153,1.221,5.723,5.723,0,0,0-8.086,0,6.526,6.526,0,0,0-5.158-1.218c-4.838,1.146-6.932,8.71-4.769,17.22h0a23.723,23.723,0,0,0,5,9.92c1.984,2.2,4.152,3.36,6.225,3.36a4.741,4.741,0,0,0,.749-0.09,5.929,5.929,0,0,0,1.434.35v22.05a25.024,25.024,0,0,0-6.246-10.52c-5.82-5.62-13.94-6.74-14.282-6.79l-1.418-.19,0.193,1.37a26.087,26.087,0,0,0,7.033,13.78c5.82,5.62,13.94,6.74,14.283,6.79l0.437,0.05V1058l1.833,0.02v-6.35c1.479-.23,8.69-1.61,14-6.74a26.07,26.07,0,0,0,7.033-13.78l0.194-1.37Zm-34.828,13.48a23.828,23.828,0,0,1-6.1-11.1,25.389,25.389,0,0,1,11.5,5.89,23.865,23.865,0,0,1,6.1,11.1A25.261,25.261,0,0,1,837.772,1043.45Zm21.7-47.024a3.147,3.147,0,0,1,.715.08c3.53,0.838,4.984,7.564,3.174,14.684h0c-1.214,4.76-3.631,8.69-6.158,10.53,1.958-2.84,3.186-7.16,3.186-12.07,0-5.11-1.33-9.56-3.42-12.394A4.808,4.808,0,0,1,859.476,996.426Zm-7.963-.311c3.636,0,6.707,6.195,6.707,13.535s-3.071,13.52-6.707,13.52-6.707-6.19-6.707-13.52S847.877,996.115,851.513,996.115Zm-7.328,24.115a21.624,21.624,0,0,1-4.528-9.04c-1.811-7.12-.357-13.846,3.175-14.684a4.315,4.315,0,0,1,3.206.767c-2.083,2.837-3.407,7.277-3.407,12.377,0,4.88,1.216,9.18,3.154,12.02A9.91,9.91,0,0,1,844.185,1020.23Zm21.069,23.22a25.385,25.385,0,0,1-11.5,5.89,23.828,23.828,0,0,1,6.1-11.1,25.4,25.4,0,0,1,11.5-5.89A23.8,23.8,0,0,1,865.254,1043.45Z" transform="translate(-817 -985)"/>
</svg>
