<svg xmlns="http://www.w3.org/2000/svg" width="70" height="85" viewBox="0 0 70 85">
  <path d="M876.5,1004.23c-0.848-1.81-2.763-3.18-6.025-4.32-3.159-1.1-5.481-1.214-7.307-.344a5.667,5.667,0,0,0-1.746,1.334,12.294,12.294,0,0,0,.376-3.55h0c-0.017-.42-0.027-0.834-0.038-1.239-0.065-2.591-.127-5.038-1.814-6.6-1.222-1.129-3.065-1.607-5.8-1.5-2.817.108-4.652,0.727-5.774,1.949-1.5,1.631-1.352,3.96-1.2,6.426,0.032,0.492.063,1,.084,1.518a11.043,11.043,0,0,0,2.926,7.294,4.455,4.455,0,0,0-2.016.56,4.38,4.38,0,0,0-1.487,1.41c-0.092-.23-0.18-0.47-0.285-0.7-0.21-.47-0.41-0.94-0.607-1.39a25.313,25.313,0,0,0-2.056-4.08,5.349,5.349,0,0,0,1.989-7.354,5.531,5.531,0,0,0-10.187,1.82,5.07,5.07,0,0,0,.439,3.137,18.417,18.417,0,0,0-2.161.8c-3.074,1.332-4.827,2.8-5.518,4.622-0.92,2.41.284,4.94,1.558,7.61,0.26,0.54.526,1.1,0.785,1.68a13.412,13.412,0,0,0,6.424,6.78,0.173,0.173,0,0,1-.043.04,1,1,0,0,0,.047,1.03l12.992,19.33a1.03,1.03,0,0,0,.843.44h1.257c-2.564,8.7-6.129,20.74-6.4,21.5a0.988,0.988,0,0,0,.483,1.27,1.013,1.013,0,0,0,1.356-.44c0.046-.09.172-0.34,4.527-15.08l-0.7,15.78a1.006,1.006,0,0,0,.966,1.04h0.044a1.007,1.007,0,0,0,1.01-.95l1.031-23.12h0.21l1.084,23.12a1.006,1.006,0,0,0,1.008.95h0.047a1,1,0,0,0,.963-1.04l-0.739-15.78c4.39,14.74,4.517,14.99,4.563,15.08a1.05,1.05,0,0,0,1.373.48,0.944,0.944,0,0,0,.469-1.29c-0.234-.64-3.854-12.77-6.455-21.52h1.772a1.031,1.031,0,0,0,.843-0.44l12.991-19.33a1,1,0,0,0,.047-1.03,1.014,1.014,0,0,0-.89-0.52h-0.449a16.363,16.363,0,0,0,3.5-5.65c0.221-.62.452-1.21,0.677-1.79C876.59,1009.32,877.631,1006.64,876.5,1004.23Zm-3.015,3.65a2.75,2.75,0,0,1-1.421,1.56,2.78,2.78,0,0,1-2.119.1,2.71,2.71,0,0,1-.264-5.03,2.781,2.781,0,0,1,2.119-.11A2.717,2.717,0,0,1,873.485,1007.88ZM852.841,991.1a2.009,2.009,0,0,1,1.4-.631c0.028,0,.055,0,0.082,0a2.006,2.006,0,0,1,1.357.523,1.955,1.955,0,0,1,.111,2.793,2.009,2.009,0,0,1-1.395.632,1.983,1.983,0,0,1-2.084-1.9A1.943,1.943,0,0,1,852.841,991.1Zm-3.558,6.729c-0.021-.534-0.054-1.057-0.086-1.564-0.139-2.211-.249-3.959.679-4.97a2.883,2.883,0,0,1,.836-0.588,3.877,3.877,0,0,0-.423,1.887,4,4,0,0,0,4.024,3.811l0.157,0a4.027,4.027,0,0,0,2.8-1.268,3.86,3.86,0,0,0,.528-4.648,2.882,2.882,0,0,1,.764.479c1.071,0.989,1.12,2.938,1.177,5.195,0.01,0.414.021,0.837,0.038,1.267,0.166,4.2-2.053,7.713-4.947,7.833C851.954,1005.37,849.448,1002.03,849.283,997.829Zm5.414,9.421a1.526,1.526,0,0,0,.213-0.01,6.127,6.127,0,0,0,4.231-2.05c-0.174.48-.345,0.96-0.516,1.46q-0.247.72-.516,1.47c-1.587,4.4-1.134,8.63,1.031,11.49h-2.2a5.882,5.882,0,0,0,.123-1.09,6.09,6.09,0,0,0-3.829-5.62,4.337,4.337,0,0,0,1.451-2.22,4.289,4.289,0,0,0-.444-3.32c-0.033-.05-0.077-0.1-0.111-0.15A5.308,5.308,0,0,0,854.7,1007.25Zm-7.815,12.36a3.94,3.94,0,0,1-.168-1.09,4.166,4.166,0,1,1,8.15,1.09h-7.982Zm0.791-6.6c0.091,0.07.194,0.12,0.289,0.18-0.107.05-.218,0.11-0.321,0.17C847.651,1013.24,847.667,1013.13,847.673,1013.01Zm-2.885,6.4c0.01,0.07.009,0.14,0.021,0.2h-0.282C844.614,1019.55,844.7,1019.48,844.788,1019.41Zm3.266-10.48a2.4,2.4,0,0,1,1.129-1.45,2.454,2.454,0,0,1,3.309.88,2.334,2.334,0,0,1,.242,1.81,2.376,2.376,0,0,1-1.13,1.44,2.44,2.44,0,0,1-3.307-.87A2.335,2.335,0,0,1,848.054,1008.93Zm-10.525-13.11a3.557,3.557,0,0,1,1.722-2.424,3.5,3.5,0,0,1,4.726,1.245,3.381,3.381,0,0,1-1.267,4.652,3.176,3.176,0,0,1-.36.149,5.327,5.327,0,0,0-1.478-.895,6.183,6.183,0,0,0-2.828-.345A3.159,3.159,0,0,1,837.529,995.82Zm-4.635,8.07a2.623,2.623,0,0,1,2.029-.05,2.6,2.6,0,0,1,1.467,1.38,2.563,2.563,0,0,1,.047,2,2.6,2.6,0,0,1-1.4,1.44,2.692,2.692,0,0,1-2.03.05,2.6,2.6,0,0,1-1.468-1.38,2.567,2.567,0,0,1-.046-2A2.6,2.6,0,0,1,832.894,1003.89Zm-0.4,8.62c-0.265-.59-0.538-1.17-0.8-1.72-0.115-.24-0.226-0.48-0.336-0.71a4.418,4.418,0,0,0,.923.48,4.722,4.722,0,0,0,1.69.32,4.773,4.773,0,0,0,1.885-.4,4.591,4.591,0,0,0,2.471-2.54,4.5,4.5,0,0,0-.082-3.52,4.633,4.633,0,0,0-4.643-2.71c0.325-.17.666-0.33,1.038-0.49a10.724,10.724,0,0,1,4.085-1.07,3.89,3.89,0,0,1,1.41.25c1.741,0.67,2.7,2.89,3.806,5.46,0.2,0.46.4,0.93,0.617,1.41,2.144,4.78,1.183,9.85-2.142,11.29S834.637,1017.29,832.492,1012.51Zm7.3,9.09h21.811l-5.859,17.34h-4.3Zm18.433,17.34h-0.351l5.86-17.34h6.147Zm14.679-25.65a13.506,13.506,0,0,1-4.651,6.32H861.9c-2.744-2.16-3.5-6.36-1.89-10.82,0.183-.51.356-1.01,0.525-1.5,0.943-2.74,1.758-5.1,3.511-5.93,1.288-.62,3.17-0.48,5.749.42,0.458,0.16.872,0.33,1.267,0.5a4.893,4.893,0,0,0-2.254.43,4.727,4.727,0,0,0-2.456,2.68h0a4.708,4.708,0,0,0,2.914,6.03,4.948,4.948,0,0,0,1.608.27,4.782,4.782,0,0,0,2.056-.46,4.71,4.71,0,0,0,1.006-.65c-0.11.29-.223,0.58-0.339,0.88C873.37,1012.05,873.134,1012.66,872.906,1013.29Zm-5.718-15.177a4.476,4.476,0,0,0,2.214-.584,4.341,4.341,0,0,0,1.626-5.974,4.4,4.4,0,0,0-2.7-2.037,4.47,4.47,0,0,0-3.372.437,4.351,4.351,0,0,0-2.07,2.655,4.289,4.289,0,0,0,.444,3.319A4.461,4.461,0,0,0,867.188,998.113Zm-2.348-4.989a2.372,2.372,0,0,1,1.129-1.447,2.437,2.437,0,0,1,1.207-.321,2.473,2.473,0,0,1,.631.082,2.408,2.408,0,0,1,1.471,1.112,2.366,2.366,0,0,1-.886,3.256,2.447,2.447,0,0,1-3.31-.872A2.337,2.337,0,0,1,864.84,993.124Z" transform="translate(-817 -985)"/>
</svg>
