<svg xmlns="http://www.w3.org/2000/svg" width="40" height="40" viewBox="0 0 40 40">
  <path d="M37.2,16.7c0.2,1.2,0.3,2.4,0.3,3.7c0,10-6.8,17.1-17.1,17.1c-9.7,0.2-17.7-7.4-17.9-17.1C2.2,10.8,9.9,2.7,19.5,2.5c0.3,0,0.6,0,0.8,0c4.4-0.1,8.7,1.6,11.9,4.6l-5,4.9v0c-1.9-1.7-4.4-2.7-6.9-2.6C14.5,9.4,9.7,14.1,9.7,20s4.8,10.7,10.7,10.7c5.3,0,9-3,9.7-7.1h-9.7v-6.8L37.2,16.7L37.2,16.7z"/>
</svg>
