<svg xmlns="http://www.w3.org/2000/svg" width="63" height="63" viewBox="0 0 63 63">
  <path d="M77.712,104.685a1.209,1.209,0,0,0-.879-0.425l-27.069.025-1.624-3.961a1.207,1.207,0,0,0-.994-0.737l-5.819-.581a1.209,1.209,0,0,0-.24,2.406l5.1,0.51L53.6,120.147a1.208,1.208,0,0,0,1.172.93,1.062,1.062,0,0,0,.125-0.007l17.894-.094a1.208,1.208,0,0,0,1.073-1.049l4.123-14.3A1.211,1.211,0,0,0,77.712,104.685Zm-6.118,13.983-15.936,0L50.754,106.7l24.178-.066Zm-0.256,4.076a3.628,3.628,0,1,0,3.621,3.628A3.628,3.628,0,0,0,71.339,122.744Zm0,4.837a1.209,1.209,0,1,1,1.207-1.209A1.209,1.209,0,0,1,71.339,127.581ZM55.8,122.744a3.628,3.628,0,1,0,3.621,3.628A3.628,3.628,0,0,0,55.8,122.744Zm0,4.837a1.209,1.209,0,1,1,1.207-1.209A1.209,1.209,0,0,1,55.8,127.581Z" transform="translate(-27.5 -83)"/>
</svg>
