<svg xmlns="http://www.w3.org/2000/svg" width="63" height="63" viewBox="0 0 63 63">
  <path d="M37.1,35.2c5-3.1,6.5-9.7,3.4-14.7s-9.7-6.5-14.7-3.4s-6.5,9.7-3.4,14.7c0.9,1.4,2,2.6,3.4,3.4c-5.4,2-9.3,6.7-10.4,12.3h2.7c1.6-7.3,8.9-12,16.2-10.3c5.2,1.1,9.2,5.2,10.3,10.3h2.7C46.5,41.8,42.5,37.2,37.1,35.2z M23.5,26.2c0-4.4,3.6-8,8-8s8,3.6,8,8c0,4.4-3.6,8-8,8C27.1,34.2,23.5,30.6,23.5,26.2L23.5,26.2z"/>
</svg>
