<svg xmlns="http://www.w3.org/2000/svg" width="33.969" height="31" viewBox="0 0 33.969 31">
  <metadata><?xpacket begin="﻿" id="W5M0MpCehiHzreSzNTczkc9d"?>
<x:xmpmeta xmlns:x="adobe:ns:meta/" x:xmptk="Adobe XMP Core 5.6-c142 79.160924, 2017/07/13-01:06:39        ">
   <rdf:RDF xmlns:rdf="http://www.w3.org/1999/02/22-rdf-syntax-ns#">
      <rdf:Description rdf:about=""/>
   </rdf:RDF>
</x:xmpmeta>
                                                                                                    
                                                                                                    
                                                                                                    
                                                                                                    
                                                                                                    
                                                                                                    
                                                                                                    
                                                                                                    
                                                                                                    
                                                                                                    
                                                                                                    
                                                                                                    
                                                                                                    
                                                                                                    
                                                                                                    
                                                                                                    
                                                                                                    
                                                                                                    
                                                                                                    
                                                                                                    
                           
<?xpacket end="w"?></metadata>
<defs>
    <style>
      .cls-1 {
        fill: #3c3c3c;
        fill-rule: evenodd;
      }
    </style>
  </defs>
  <path id="Фигура_1" data-name="Фигура 1" class="cls-1" d="M285.149,2502.8h-2.832v-2.82h-2.832v2.82h-7.079v-2.82h-2.832v2.82H262.5v-2.82h-2.832v2.82h-2.832a2.833,2.833,0,0,0-2.832,2.82v22.57a2.833,2.833,0,0,0,2.832,2.82h28.318a2.833,2.833,0,0,0,2.832-2.82v-22.57A2.833,2.833,0,0,0,285.149,2502.8Zm0,25.39H256.831v-16.93h28.318v16.93Zm0-19.75H256.831v-2.82h28.318v2.82Zm-18.407,7.06h-2.831v2.82h2.831v-2.82Zm5.664,0h-2.832v2.82h2.832v-2.82Zm5.664,0h-2.832v2.82h2.832v-2.82Zm-11.328,5.64h-2.831v2.82h2.831v-2.82Zm5.664,0h-2.832v2.82h2.832v-2.82Zm5.664,0h-2.832v2.82h2.832v-2.82Z" transform="translate(-254 -2500)"/>
</svg>
