<svg xmlns="http://www.w3.org/2000/svg" width="25" height="21" viewBox="0 0 25 21">
<path fill="#d9dee4" d="M106.5,1362l3.153,7.04,7.35,0.98-5.4,5.33,1.389,7.65-6.491-3.75-6.484,3.75,1.39-7.65-5.4-5.33,7.351-.98Z" transform="translate(-94 -1362)"/>
</svg>
