<svg id="Группа_1" data-name="Группа 1" xmlns="http://www.w3.org/2000/svg" width="291.219" height="83" viewBox="0 0 291.219 83">
  <path d="M41.5,4.543A12.914,12.914,0,0,1,54.393,17.407L54.4,21.94h6.617v0.04h0.04V28.6l4.533,0.01a12.893,12.893,0,0,1,0,25.786l-4.533.01v6.617h-0.04v0.04H54.4l-0.01,4.533a12.893,12.893,0,0,1-25.786,0L28.6,61.061H21.979v-0.04H21.94V54.4l-4.533-.01a12.893,12.893,0,0,1,0-25.786l4.533-.01V21.979h0.04V21.94H28.6l0.01-4.533A12.914,12.914,0,0,1,41.5,4.543M41.5,0A17.436,17.436,0,0,0,24.064,17.4H17.436v0.04H17.4v6.628a17.436,17.436,0,0,0,0,34.872v6.627h0.04V65.6h6.628a17.436,17.436,0,0,0,34.872,0h6.628v-0.04H65.6V58.936a17.436,17.436,0,0,0,0-34.872V17.437h-0.04V17.4H58.936A17.436,17.436,0,0,0,41.5,0h0ZM15.367,15.367a12.914,12.914,0,0,1,18.213-.021l3.212,3.2L40,15.34l1.474-1.474L41.5,13.894l0.028-.028L43,15.34l3.205,3.205,3.212-3.2A12.893,12.893,0,0,1,67.653,33.58l-3.2,3.212L67.661,40l1.474,1.474-0.028.028,0.028,0.028L67.661,43l-3.205,3.205,3.2,3.212A12.893,12.893,0,0,1,49.42,67.653l-3.212-3.2L43,67.661l-1.474,1.474L41.5,69.106l-0.028.028L40,67.661l-3.205-3.205-3.212,3.2A12.893,12.893,0,0,1,15.347,49.42l3.2-3.212L15.34,43l-1.474-1.474,0.028-.028-0.028-.028L15.34,40l3.205-3.205-3.2-3.212a12.914,12.914,0,0,1,.021-18.213m-3.212-3.212a17.436,17.436,0,0,0-.028,24.63L7.441,41.472,7.469,41.5l-0.028.028,4.686,4.686A17.436,17.436,0,0,0,36.785,70.873l4.686,4.686,0.028-.028,0.028,0.028,4.686-4.686A17.436,17.436,0,0,0,70.873,46.215l4.686-4.686L75.531,41.5l0.028-.028-4.686-4.686A17.436,17.436,0,0,0,46.215,12.127L41.528,7.441,41.5,7.469l-0.028-.028-4.686,4.686a17.436,17.436,0,0,0-24.63.028h0Z"/>
  <path d="M53.309,56.355V46.671H50.251V28.817H44.269V46.671H36.292V28.817H30.309V51.875h17.35v4.48h5.65Z"/>
  <path d="M116.66,51.068V8.212h-4.928v43.12h-8.1V8.212H98.708V56.348h17.028v5.94h3.916V51.068H116.66Zm19.953-5.874a10.47,10.47,0,0,1-1.056,2.838,7.378,7.378,0,0,1-1.848,2.222,4.913,4.913,0,0,1-2.75,1.034V13.1a7.014,7.014,0,0,1,2.332,1.188,7.747,7.747,0,0,1,1.716,1.87,8.985,8.985,0,0,1,1.452,4.906,13.14,13.14,0,0,1-1.452,6.028,22.665,22.665,0,0,1-3.564,5.148q1.275,1.1,2.288,2.156a13.194,13.194,0,0,1,1.738,2.244,9.83,9.83,0,0,1,1.1,2.574,11.923,11.923,0,0,1,.374,3.1A13.58,13.58,0,0,1,136.613,45.194Zm4.422-8.162a15.9,15.9,0,0,0-3.168-5.1,25.422,25.422,0,0,0,2.728-5.236,16.177,16.177,0,0,0,1.056-5.808A12.667,12.667,0,0,0,136.965,10.7a14.667,14.667,0,0,0-4.972-2.618,20.026,20.026,0,0,0-5.962-.88V57.316q1.8-.044,3.982-0.264a12.476,12.476,0,0,0,3.85-.968,13.591,13.591,0,0,0,6.116-5.324,14.345,14.345,0,0,0,1.606-3.7,15.408,15.408,0,0,0,.55-4.136A16.3,16.3,0,0,0,141.035,37.032Zm19.712,19.316v-4.8h-8.668V32.5h7.832V27.7h-7.832v-14.7h7.832v-4.8h-12.76V56.348h13.6ZM180.2,13.008v-4.8h-16.94v4.8h5.984v43.34h4.928V13.008H180.2ZM198.3,35.58q0.022,1.937-.088,4.114t-0.374,4.378a22.116,22.116,0,0,1-.814,3.96,8.455,8.455,0,0,1-1.452,2.86,2.813,2.813,0,0,1-2.266,1.1,2.875,2.875,0,0,1-2.288-1.1,8.474,8.474,0,0,1-1.5-2.86,22.068,22.068,0,0,1-.858-3.96q-0.286-2.2-.4-4.378t-0.11-4.114V29.2q0-1.98.088-4.158t0.374-4.378a23.459,23.459,0,0,1,.836-3.96,8.212,8.212,0,0,1,1.474-2.86,2.93,2.93,0,0,1,4.576,0,8.212,8.212,0,0,1,1.474,2.86,23.459,23.459,0,0,1,.836,3.96q0.287,2.2.374,4.378t0.088,4.158v3.168Q198.278,33.645,198.3,35.58Zm4.62-15.752a25.615,25.615,0,0,0-2.464-7.524,8.688,8.688,0,0,0-3.432-3.652,7.966,7.966,0,0,0-7.612,0A8.688,8.688,0,0,0,185.98,12.3a25.615,25.615,0,0,0-2.464,7.524,67.549,67.549,0,0,0-.946,12.54,80.43,80.43,0,0,0,.44,9,42.845,42.845,0,0,0,1.21,6.6,18.544,18.544,0,0,0,1.826,4.51,11.548,11.548,0,0,0,2.244,2.794,6.875,6.875,0,0,0,2.464,1.43,8.421,8.421,0,0,0,5.1,0,6.672,6.672,0,0,0,2.442-1.43,10.975,10.975,0,0,0,2.178-2.816,19.759,19.759,0,0,0,1.76-4.532,44.868,44.868,0,0,0,1.188-6.578,79.831,79.831,0,0,0,.44-8.976A67.549,67.549,0,0,0,202.92,19.828Zm15.95,11.4a5.127,5.127,0,0,1-2.794-1.034,7.613,7.613,0,0,1-1.936-2.222A10.6,10.6,0,0,1,213,25.13a12.023,12.023,0,0,1-.374-2.882V8.212h-4.928V22.248a16.184,16.184,0,0,0,2.134,8.4,13,13,0,0,0,6.138,5.368,13.231,13.231,0,0,0,2.9.836V56.348H223.8V8.212H218.87V31.224Zm29.216,25.124V8.212h-4.928V27.7h-8.1V8.212h-4.928V56.348h4.928V32.5h8.1V56.348h4.928ZM264.629,40.86h-4.752l2.332-14.168Zm7.92,15.488L263,6.188a5.381,5.381,0,0,0-.2-0.506,0.456,0.456,0,0,0-.462-0.242,0.511,0.511,0,0,0-.462.242,2.248,2.248,0,0,0-.242.506l-9.416,50.16h4.752l1.98-10.692h6.6l2.024,10.692h4.972Zm4.422-19.1a24.563,24.563,0,0,0,4.6,7.216l-5.852,11.88h5.456l4.356-8.976,0.748,0.44v8.536h4.928V7.024a20.636,20.636,0,0,0-6.446,3.234,22.982,22.982,0,0,0-5.016,5.1,23.658,23.658,0,0,0-3.234,6.4,22.652,22.652,0,0,0-1.144,7.128A21.807,21.807,0,0,0,276.971,37.252ZM280.6,25.614a20.7,20.7,0,0,1,1.24-3.718,19.956,19.956,0,0,1,1.929-3.41,16.7,16.7,0,0,1,2.5-2.838V42.18a14,14,0,0,1-2.46-2.552,19.006,19.006,0,0,1-1.951-3.19,17.559,17.559,0,0,1-1.262-3.52,14.966,14.966,0,0,1-.443-3.542A16.61,16.61,0,0,1,280.6,25.614Z"/>
  <path d="M139.1,81l3.382-4.538h1.258V81h3.06V69.1h-5.592a4.514,4.514,0,0,0-3.128,1.037,3.378,3.378,0,0,0-1.156,2.635,3.483,3.483,0,0,0,2.312,3.349L135.579,81H139.1Zm2.278-7.037a1.166,1.166,0,0,1-1.36-1.122,1.189,1.189,0,0,1,1.36-1.156h2.362v2.278h-2.362ZM158.937,81V76.563h2.243a4.575,4.575,0,0,0,3.162-1.037,3.453,3.453,0,0,0,1.173-2.7,3.418,3.418,0,0,0-1.173-2.686A4.575,4.575,0,0,0,161.18,69.1h-5.3V81h3.06Zm0-9.315h2.022a1.23,1.23,0,0,1,1.462,1.173,1.249,1.249,0,0,1-1.462,1.19h-2.022V71.685ZM176.906,81V73.742l2.192,3.2h1.683l2.125-3.2V81h3.043V69.1h-3.026L179.9,73.674,176.889,69.1h-3.043V81h3.06Zm20.383,0,1-2.516h4.42l1,2.516H207l-5-11.967h-2.941l-5,11.967h3.23Zm3.212-8.142,1.241,3.179H199.26ZM218.164,81V76.563h2.244a4.575,4.575,0,0,0,3.162-1.037,3.453,3.453,0,0,0,1.173-2.7,3.418,3.418,0,0,0-1.173-2.686,4.575,4.575,0,0,0-3.162-1.037h-5.3V81h3.059Zm0-9.315h2.023a1.23,1.23,0,0,1,1.462,1.173,1.249,1.249,0,0,1-1.462,1.19h-2.023V71.685ZM236.133,81V75.714L240.791,81h3.722l-5.456-6.425,4.607-5.473h-3.672l-3.859,4.538V69.1h-3.059V81h3.059Zm18.5,0,1-2.516h4.42l1,2.516h3.281l-5-11.967H256.4L251.4,81h3.23Zm3.213-8.142,1.241,3.179H256.6Z"/>
</svg>
